/* XPM */
static char * C:\Users\hh1\Desktop\NewDemo\demo_application\images\smv_xpm[] = {
"48 48 449 2",
"  	c #FEFEFE",
". 	c #FFFFFF",
"+ 	c #FEFEFD",
"@ 	c #FEFDFC",
"# 	c #FFFEFD",
"$ 	c #FCFFFF",
"% 	c #F8F1E7",
"& 	c #F6E7D5",
"* 	c #F5E2CB",
"= 	c #F4DDC2",
"- 	c #F3DCC0",
"; 	c #F3DDC2",
"> 	c #F5E1CB",
", 	c #F6E8D6",
"' 	c #F7EDE1",
") 	c #F9F8F7",
"! 	c #FEFFFF",
"~ 	c #FCFCFC",
"{ 	c #F4DEC4",
"] 	c #EFC493",
"^ 	c #EFB877",
"/ 	c #EEB269",
"( 	c #ECAD61",
"_ 	c #ECA95A",
": 	c #E9A656",
"< 	c #E8A75A",
"[ 	c #E8AA5F",
"} 	c #E9AF68",
"| 	c #E9B271",
"1 	c #EAB779",
"2 	c #ECBE86",
"3 	c #ECC595",
"4 	c #EED3B2",
"5 	c #F4E8D9",
"6 	c #FBFBFA",
"7 	c #F8E8D6",
"8 	c #F0C694",
"9 	c #EDA753",
"0 	c #EFA349",
"a 	c #EEA045",
"b 	c #EC9C3B",
"c 	c #EBA44E",
"d 	c #EDB067",
"e 	c #EFB876",
"f 	c #EFC087",
"g 	c #EFC797",
"h 	c #EFCA9E",
"i 	c #EEC99C",
"j 	c #EDC89B",
"k 	c #ECC696",
"l 	c #EDC390",
"m 	c #ECC08A",
"n 	c #EABE88",
"o 	c #E8BB83",
"p 	c #E6BA83",
"q 	c #EBCDA9",
"r 	c #F4E8DA",
"s 	c #FAF7F4",
"t 	c #FFFEFE",
"u 	c #FFFFFE",
"v 	c #F8EBDC",
"w 	c #F1BF82",
"x 	c #ED9C3C",
"y 	c #F09B36",
"z 	c #EF9F3E",
"A 	c #ED9E40",
"B 	c #EDB26C",
"C 	c #F1C999",
"D 	c #F4DDC1",
"E 	c #F7EBDE",
"F 	c #F9F9F8",
"G 	c #FDFFFF",
"H 	c #F7EFE6",
"I 	c #F4E5D2",
"J 	c #F0DBBF",
"K 	c #EDCFA9",
"L 	c #E6BE8D",
"M 	c #E5C295",
"N 	c #EEDABF",
"O 	c #F6EFE7",
"P 	c #F2C691",
"Q 	c #EE9F40",
"R 	c #F0972C",
"S 	c #F09C37",
"T 	c #EDA145",
"U 	c #EEBC7F",
"V 	c #F6E5D1",
"W 	c #FBF5EF",
"X 	c #FFFDFC",
"Y 	c #FEFDFD",
"Z 	c #F9F4EE",
"` 	c #F3E6D6",
" .	c #E9CFAE",
"..	c #E6C8A0",
"+.	c #EAD3B5",
"@.	c #F2E9DE",
"#.	c #F7E9D8",
"$.	c #EFA954",
"%.	c #F09426",
"&.	c #F19527",
"*.	c #EE9D3A",
"=.	c #EFBD81",
"-.	c #F8EFE5",
";.	c #F9F6F3",
">.	c #EEDFCC",
",.	c #E8D2B3",
"'.	c #E6D4BB",
").	c #F2EBE0",
"!.	c #FEFEFF",
"~.	c #F4D5B0",
"{.	c #EF9931",
"].	c #F29423",
"^.	c #F09528",
"/.	c #EEA854",
"(.	c #F5DEC3",
"_.	c #FDFEFF",
":.	c #F4EBE0",
"<.	c #EADBC6",
"[.	c #E7DAC7",
"}.	c #F5F0E8",
"|.	c #F3CE9F",
"1.	c #F09220",
"2.	c #F39420",
"3.	c #EF9322",
"4.	c #F0BC7D",
"5.	c #FBF9F8",
"6.	c #F8F3EC",
"7.	c #EBE2D4",
"8.	c #E9E1D2",
"9.	c #F8F6F3",
"0.	c #F7E6D5",
"a.	c #F3CA97",
"b.	c #F08F19",
"c.	c #F3931E",
"d.	c #F2CDA2",
"e.	c #F8F7F3",
"f.	c #EBE5DA",
"g.	c #EFECE5",
"h.	c #EF9634",
"i.	c #F5CC9C",
"j.	c #F5D2A7",
"k.	c #F08E17",
"l.	c #F39019",
"m.	c #F19627",
"n.	c #F8DEBD",
"o.	c #F6F5F2",
"p.	c #F3F1EE",
"q.	c #F2962E",
"r.	c #F48F1C",
"s.	c #F2C38C",
"t.	c #F2982C",
"u.	c #F28D13",
"v.	c #F49520",
"w.	c #FFEDCC",
"x.	c #F8F8F7",
"y.	c #F1F1F1",
"z.	c #FAFAFA",
"A.	c #FDFDFD",
"B.	c #F8F1E8",
"C.	c #F39831",
"D.	c #F68C15",
"E.	c #F48C12",
"F.	c #F48F17",
"G.	c #F2921E",
"H.	c #F3D9B6",
"I.	c #9EA8B3",
"J.	c #494A4B",
"K.	c #1E1E1E",
"L.	c #010101",
"M.	c #101010",
"N.	c #121212",
"O.	c #111111",
"P.	c #0A0A0A",
"Q.	c #262626",
"R.	c #C9C9C9",
"S.	c #828282",
"T.	c #060606",
"U.	c #0B0B0B",
"V.	c #747474",
"W.	c #525252",
"X.	c #000000",
"Y.	c #181818",
"Z.	c #BABABA",
"`.	c #EBEBEB",
" +	c #515151",
".+	c #1C1C1C",
"++	c #BEBEBE",
"@+	c #A5A5A5",
"#+	c #070707",
"$+	c #626262",
"%+	c #FDF0DF",
"&+	c #EE9B3E",
"*+	c #F29730",
"=+	c #F68F1C",
"-+	c #F58D14",
";+	c #F08B12",
">+	c #FFE2BB",
",+	c #A4ABB3",
"'+	c #989898",
")+	c #DCDCDC",
"!+	c #D6D6D6",
"~+	c #D7D7D7",
"{+	c #D0D0D0",
"]+	c #D3D3D3",
"^+	c #969696",
"/+	c #5C5C5C",
"(+	c #4C4C4C",
"_+	c #090909",
":+	c #CDCDCD",
"<+	c #F0F0F0",
"[+	c #343434",
"}+	c #CFCFCF",
"|+	c #ADADAD",
"1+	c #4E555D",
"2+	c #FFF9EE",
"3+	c #F79D36",
"4+	c #F18912",
"5+	c #F19936",
"6+	c #F68D15",
"7+	c #F38708",
"8+	c #F2CB9A",
"9+	c #D4D3D2",
"0+	c #3C3C3C",
"a+	c #585858",
"b+	c #595959",
"c+	c #5E5E5E",
"d+	c #7D7D7D",
"e+	c #A1A1A1",
"f+	c #F4F4F4",
"g+	c #AFAFAF",
"h+	c #757575",
"i+	c #363636",
"j+	c #1A1A1A",
"k+	c #E1E1E1",
"l+	c #EEEEEE",
"m+	c #282828",
"n+	c #222222",
"o+	c #9E9E9E",
"p+	c #464C53",
"q+	c #FAF8F6",
"r+	c #FBA746",
"s+	c #F5890E",
"t+	c #F49120",
"u+	c #F29F40",
"v+	c #F58709",
"w+	c #F3C288",
"x+	c #A8A8A8",
"y+	c #878787",
"z+	c #808080",
"A+	c #7F7F7F",
"B+	c #3D3D3D",
"C+	c #C2C2C2",
"D+	c #B9B9B9",
"E+	c #2B2B2B",
"F+	c #383838",
"G+	c #B7B7B7",
"H+	c #242424",
"I+	c #1F1F1F",
"J+	c #E4E4E4",
"K+	c #171717",
"L+	c #404245",
"M+	c #FAAF54",
"N+	c #F38607",
"O+	c #F6911E",
"P+	c #F58F1C",
"Q+	c #F19C3C",
"R+	c #F3B670",
"S+	c #ECECEC",
"T+	c #B6B6B6",
"U+	c #BCBCBC",
"V+	c #BDBDBD",
"W+	c #C1C1C1",
"X+	c #373737",
"Y+	c #F9F9F9",
"Z+	c #E7E7E7",
"`+	c #A2A2A2",
" @	c #E2E2E2",
".@	c #C8C8C8",
"+@	c #030303",
"@@	c #323232",
"#@	c #EFEFEF",
"$@	c #D1D1D1",
"%@	c #0E0E0E",
"&@	c #252A30",
"*@	c #ECEDEF",
"=@	c #FEBA66",
"-@	c #F18B0F",
";@	c #F58E15",
">@	c #F6901B",
",@	c #F5901D",
"'@	c #F2D0A8",
")@	c #FDFDFC",
"!@	c #CECECE",
"~@	c #393939",
"{@	c #232323",
"]@	c #272727",
"^@	c #4D4D4D",
"/@	c #6E6E6E",
"(@	c #131313",
"_@	c #2D2D2D",
":@	c #EAEAEA",
"<@	c #FBFBFB",
"[@	c #B8B8B8",
"}@	c #E0E0E0",
"|@	c #BFBFBF",
"1@	c #151515",
"2@	c #252A2F",
"3@	c #D3D8E0",
"4@	c #FFC174",
"5@	c #F18D13",
"6@	c #F3911C",
"7@	c #F19D39",
"8@	c #F48C15",
"9@	c #F58E19",
"0@	c #F9FBFD",
"a@	c #FCFCFB",
"b@	c #F8F8F8",
"c@	c #FAFDFF",
"d@	c #FBBE73",
"e@	c #F18E15",
"f@	c #F28D12",
"g@	c #F1A64B",
"h@	c #FAFCFF",
"i@	c #F4BF81",
"j@	c #F38305",
"k@	c #F5F4F2",
"l@	c #EEEAE4",
"m@	c #F3EFE8",
"n@	c #FFFEFB",
"o@	c #F5B366",
"p@	c #F2931E",
"q@	c #F28F17",
"r@	c #F09E3A",
"s@	c #FAF2E8",
"t@	c #F2BE85",
"u@	c #F1EDE6",
"v@	c #E9E0D1",
"w@	c #F2EEE6",
"x@	c #F8EEE2",
"y@	c #EFA64E",
"z@	c #F29321",
"A@	c #F29018",
"B@	c #F09F3B",
"C@	c #F9EFE1",
"D@	c #FAF9F8",
"E@	c #EDE4D6",
"F@	c #E7D9C6",
"G@	c #F2E9DD",
"H@	c #FCFAF8",
"I@	c #FFFEFC",
"J@	c #F3D3AC",
"K@	c #F29525",
"L@	c #F1921F",
"M@	c #EFA74F",
"N@	c #FAF4EC",
"O@	c #F8F5F0",
"P@	c #EBDDC9",
"Q@	c #E5D2B7",
"R@	c #EFE1CC",
"S@	c #F6F2EC",
"T@	c #F6E9D7",
"U@	c #EFB56E",
"V@	c #EE962C",
"W@	c #F2982A",
"X@	c #F09425",
"Y@	c #F0BB79",
"Z@	c #FBFAF9",
"`@	c #F9F5EE",
" #	c #EAD9C0",
".#	c #E7CCA9",
"+#	c #EAD1B1",
"@#	c #F0E3D3",
"##	c #FBF9F7",
"$#	c #F5E8D8",
"%#	c #F0BE82",
"&#	c #EEA449",
"*#	c #F0962A",
"=#	c #F0982E",
"-#	c #ED9D3C",
";#	c #F4D6B2",
">#	c #F9F5F1",
",#	c #ECDBC5",
"'#	c #E9CCA5",
")#	c #E5C294",
"!#	c #E9CCA7",
"~#	c #F2E4D0",
"{#	c #F8F2E9",
"]#	c #FAF6F2",
"^#	c #FCFCFD",
"/#	c #FBF7F1",
"(#	c #F8EBDB",
"_#	c #F2D5B2",
":#	c #ECB36F",
"<#	c #EEA146",
"[#	c #EF9D3B",
"}#	c #EF962C",
"|#	c #EEA245",
"1#	c #FAF5F0",
"2#	c #F3E6D5",
"3#	c #EDD3B4",
"4#	c #E7BE8C",
"5#	c #E5B77C",
"6#	c #EAC495",
"7#	c #EECEA8",
"8#	c #F1D7B8",
"9#	c #F2DCC2",
"0#	c #F4E1CB",
"a#	c #F5E5D1",
"b#	c #F5E6D2",
"c#	c #F2D4B0",
"d#	c #F0C898",
"e#	c #EDB878",
"f#	c #EAA34F",
"g#	c #EE9F42",
"h#	c #F0A145",
"i#	c #EE9C3A",
"j#	c #ECA34C",
"k#	c #F1C288",
"l#	c #F7EAD8",
"m#	c #F9F5EF",
"n#	c #F4E7D7",
"o#	c #EDD2B0",
"p#	c #E9BD86",
"q#	c #E9B472",
"r#	c #E8B372",
"s#	c #E8B270",
"t#	c #EAB06C",
"u#	c #EAAD63",
"v#	c #EAA657",
"w#	c #EAA049",
"x#	c #ECA24B",
"y#	c #EDA651",
"z#	c #EFA855",
"A#	c #ECA755",
"B#	c #EDB777",
"C#	c #F3D7B5",
"D#	c #FAF0E4",
"E#	c #F7F4EF",
"F#	c #F4E4D1",
"G#	c #F0D8B9",
"H#	c #EECDA4",
"I#	c #EDC494",
"J#	c #EDC189",
"K#	c #EEC087",
"L#	c #EEBF86",
"M#	c #EEC28D",
"N#	c #EFC99C",
"O#	c #F4E3D0",
"P#	c #FBF8F6",
"  .     .     .     .     .     .     .     .     .     .     .     .     .     .     .     .   ",
". . . . . . . . . . . . . . . . . . . . . . . . . . . . . . . . . . . . . . . . . . . . . . . . ",
"  .     .     .     .     .     .     .     .     .     .     .     .     .     .     .     .   ",
"  .     .     .     .     .     .     .     .     .     .     .     .     .     .     .     .   ",
". . . . . . . . . . . . . . . . . . . . . . . . . . . . . . . . . . . . . . . . . . . . . . . . ",
"  .     .     .     .     .     .     .     .     .     .     .     .     .     .     .     .   ",
"  .     .     .     .     .     .     .     .     .     .     .     .     .     .     .     .   ",
". . . . . . . . . . . . . . . . . . . . . . . . . . . . . . . . . . . . . . . . . . . . . . . . ",
"  .     .     .     .     .     .     .     .     .     .     .     .     .     .     .     .   ",
"  .     .     .     .     .   + @ # . . . . . . . . . . # +     .   .     .     .     .     .   ",
". . . . . . . . . . .   . . . . . $ % & * = - ; > , ' ) ! . . . . .   . . . . . . . . . . . . . ",
"  .     .     .   .   . . . ~ { ] ^ / ( _ : < [ } | 1 2 3 4 5 6 . . . .         .     .     .   ",
"  .     .     .   @ . ! 7 8 9 0 a b c d e f g h i j k l m n o p q r s ! . t   . .     .     .   ",
". . . . . .   u . . v w x y z A B C D E F ! . . . . . G ) H I J K L M N O ! . . .   . . . . . . ",
"  .     .   . . $ P Q R S T U V W G . . . X @ Y Y Y @ # . . . . ~ Z `  ...+.@.. . .         .   ",
"  .   t   . . #.$.%.&.*.=.-.! . . .         .     .     .     . . . . . ;.>.,.'.).!..     . .   ",
".   !   . . ~.{.].^./.(.. . . .   . . . . . . . . . . . . . . .     . . . . _.:.<.[.}.. . .   . ",
". . + . . |.1.2.3.4.5.. #   . u .     .     .     .     .     .     . .   + u . . 6.7.8.9.. . . ",
"0.!.. . a.b.c.^.d.! . t   .     .     .     .     .     .     .     .     .     . . . e.f.g.) + ",
"h.i.. j.k.l.m.n.. . . . . . . . .   .     . . . .     . . . .     . . . . .   .   . . . . o.p.. ",
"q.r.s.t.u.v.w.. u x.y.y.y.y.y.y.z.. .   . . A.A.. . . . ~ . . .   . . ~ . . . A.. . . A.. . . B.",
"C.D.E.F.G.H.I.J.K.L.M.N.O.N.P.Q.R.. . . . S.T.U.V.. z.W.X.Y.Z.. . `. +L..+++. A.. @+U.#+$+. %+&+",
"*+=+-+;+>+,+X.X.X.'+)+!+~+!+{+]+z..   . ^+X.X.X.X./+(+X.X.X._+:+. <+[+X.X.U.}+. |+X.X.X.1+2+3+4+",
"5+6+7+8+. 9+K.X.X.0+a+b+c+d+e+f+. . . g+X.X.X.h+i+X.X.X.X.X.X.j+k+. l+m+X.X.n+o+#+X.X.p+q+r+s+t+",
"u+v+w+. ! . . }+x+y+z+A+B+X.X.M.C+. D+X.X.X.c+. l+E+X.F+G+H+X.X.I+`.. J+K+X.X.X.X.X.L+) M+N+O+P+",
"Q+R+! . . S+Z.T+U+V+U+W+h+X.X.X.W+~+X.X.X.X+Y+. . Z+`+ @. .@+@X.X.@@#@. $@%@X.X.X.&@*@=@-@;@>@,@",
"'@. . )@. !@~@{@]@]@Q.n+{@^@/@R.. D+(@X._@:@. ~ A.. . . <@. [@M.X.~@}@. . |@1@X.2@3@4@5@6@7@8@9@",
". 0@a@. u A.b@b@b@b@b@Y+. . . . . . . z.. . A..   .       . .   <@. .   . . u c@. d@e@f@g@h@i@j@",
". k@l@m@. . . . . . . . . . . .   . . . .     . . . . .     . . . . .     . . n@o@p@q@r@s@. ~ t@",
"  . 6 u@v@w@  . . .   .   .     .     .     .     .     .     .         . . x@y@z@A@B@C@. + . G ",
".   . . D@E@F@G@H@. . + +   .   .     .     .     .     .     . .   I@. $ J@*.K@L@M@N@. t     . ",
".     . . . O@P@Q@R@S@. . . . . t ! . . . . . . . . . . .   u . . . ! T@U@V@W@X@Y@Z@. u   . . . ",
"  .   .   + . . `@ #.#+#@###. . . . . .     .     !   . . . . . ! $#%#&#*#=#-#;#! . + !     .   ",
"  .     .     . . . >#,#'#)#!#~#{#]#^#. . . . . . . . . $ /#(#_#:#<#[#}#|#%#1#. .     .     .   ",
". . . . . . .     . . . D@2#3#4#5#6#7#8#9#0#a#b#& V { c#d#e#f#g#h#i#j#k#l#. . .   . . . . . . . ",
"  .     .     .   .   + . . _.m#n#o#p#q#r#r#s#t#} u#v#w#x#y#z#A#B#C#D#! . X   . .     .     .   ",
"  .     .     .     .   !   . . . . _.E#F#G#H#I#J#K#L#M#N#c#O#P#. . . .         .     .     .   ",
". . . . . . . . . . . . . .     . . . . . . . . . G . . . . . . . .   ! . . . . . . . . . . . . ",
"  .     .     .     .     .     . . !     + + @ @ I@@ @ @ +     .   .     .     .     .     .   ",
"  .     .     .     .     .     .     .     .     .     .     .     .     .     .     .     .   ",
". . . . . . . . . . . . . . . . . . . . . . . . . . . . . . . . . . . . . . . . . . . . . . . . ",
"  .     .     .     .     .     .     .     .     .     .     .     .     .     .     .     .   ",
"  .     .     .     .     .     .     .     .     .     .     .     .     .     .     .     .   ",
". . . . . . . . . . . . . . . . . . . . . . . . . . . . . . . . . . . . . . . . . . . . . . . . ",
"  .     .     .     .     .     .     .     .     .     .     .     .     .     .     .     .   ",
"  .     .     .     .     .     .     .     .     .     .     .     .     .     .     .     .   ",
". . . . . . . . . . . . . . . . . . . . . . . . . . . . . . . . . . . . . . . . . . . . . . . . ",
"  .     .     .     .     .     .     .     .     .     .     .     .     .     .     .     .   "};
