/*******************************************************************************
* Copyright (c) 2012 SMV Group (http://smv.unige.ch).
*
* Contributors:
*     Nicolas Sedlmajer - initial API and implementation
*******************************************************************************/
